Tag Library Index 1.1.0
BUILDPATH_DIRTY|false
BUILDPATH_ENTRIES|54
JAR|false|false|C:/Users/Rahul Sapireddy/.m2/repository/org/jboss/jandex/2.0.3.Final/jandex-2.0.3.Final.jar
JAR|false|false|C:/Users/Rahul Sapireddy/.m2/repository/com/fasterxml/jackson/core/jackson-core/2.8.7/jackson-core-2.8.7.jar
JAR|false|false|C:/Users/Rahul Sapireddy/.m2/repository/org/apache/commons/commons-pool2/2.4.2/commons-pool2-2.4.2.jar
JAR|false|false|C:/Program Files/Java/jdk1.8.0_144/jre/lib/charsets.jar
JAR|false|false|C:/Program Files/Java/jdk1.8.0_144/jre/lib/ext/dnsns.jar
JAR|false|false|C:/Program Files/Java/jdk1.8.0_144/jre/lib/ext/sunpkcs11.jar
JAR|false|false|C:/Users/Rahul Sapireddy/.m2/repository/org/slf4j/slf4j-api/1.7.22/slf4j-api-1.7.22.jar
JAR|false|false|C:/Users/Rahul Sapireddy/.m2/repository/org/hibernate/javax/persistence/hibernate-jpa-2.1-api/1.0.0.Final/hibernate-jpa-2.1-api-1.0.0.Final.jar
JAR|false|false|C:/Users/Rahul Sapireddy/.m2/repository/org/jboss/logging/jboss-logging/3.3.0.Final/jboss-logging-3.3.0.Final.jar
JAR|false|false|C:/Users/Rahul Sapireddy/.m2/repository/ch/qos/logback/logback-classic/1.2.1/logback-classic-1.2.1.jar
JAR|false|false|C:/Users/Rahul Sapireddy/.m2/repository/org/springframework/spring-beans/4.3.6.RELEASE/spring-beans-4.3.6.RELEASE.jar
JAR|false|false|C:/Users/Rahul Sapireddy/.m2/repository/org/apache/commons/commons-dbcp2/2.1.1/commons-dbcp2-2.1.1.jar
JAR|false|false|C:/Program Files/Java/jdk1.8.0_144/jre/lib/ext/sunec.jar
JAR|false|false|C:/Users/Rahul Sapireddy/.m2/repository/org/hibernate/hibernate-validator/5.4.1.Final/hibernate-validator-5.4.1.Final.jar
JAR|false|false|C:/Program Files/Java/jdk1.8.0_144/jre/lib/jsse.jar
JAR|false|false|C:/Program Files/Java/jdk1.8.0_144/jre/lib/ext/sunmscapi.jar
JAR|false|false|C:/Users/Rahul Sapireddy/.m2/repository/org/springframework/spring-orm/4.3.6.RELEASE/spring-orm-4.3.6.RELEASE.jar
JAR|false|false|C:/Program Files/Java/jdk1.8.0_144/jre/lib/jce.jar
JAR|false|false|C:/Users/Rahul Sapireddy/.m2/repository/org/springframework/spring-tx/4.3.6.RELEASE/spring-tx-4.3.6.RELEASE.jar
JAR|false|false|C:/Users/Rahul Sapireddy/.m2/repository/org/hibernate/common/hibernate-commons-annotations/5.0.1.Final/hibernate-commons-annotations-5.0.1.Final.jar
JAR|false|false|C:/Users/Rahul Sapireddy/.m2/repository/dom4j/dom4j/1.6.1/dom4j-1.6.1.jar
JAR|false|false|C:/Users/Rahul Sapireddy/.m2/repository/org/springframework/spring-web/4.3.6.RELEASE/spring-web-4.3.6.RELEASE.jar
JAR|false|false|C:/Users/Rahul Sapireddy/.m2/repository/com/h2database/h2/1.4.196/h2-1.4.196.jar
JAR|false|false|C:/Users/Rahul Sapireddy/.m2/repository/org/springframework/spring-expression/4.3.6.RELEASE/spring-expression-4.3.6.RELEASE.jar
JAR|false|false|C:/Users/Rahul Sapireddy/.m2/repository/javax/validation/validation-api/1.1.0.Final/validation-api-1.1.0.Final.jar
JAR|false|false|C:/Program Files/Java/jdk1.8.0_144/jre/lib/resources.jar
JAR|false|false|C:/Users/Rahul Sapireddy/.m2/repository/com/fasterxml/jackson/core/jackson-annotations/2.8.7/jackson-annotations-2.8.7.jar
JAR|false|false|C:/Users/Rahul Sapireddy/.m2/repository/org/springframework/spring-core/4.3.6.RELEASE/spring-core-4.3.6.RELEASE.jar
JAR|false|false|C:/Program Files/Java/jdk1.8.0_144/jre/lib/ext/zipfs.jar
JAR|false|false|C:/Program Files/Java/jdk1.8.0_144/jre/lib/ext/nashorn.jar
JAR|false|false|C:/Program Files/Java/jdk1.8.0_144/jre/lib/jfr.jar
JAR|false|false|C:/Users/Rahul Sapireddy/.m2/repository/org/hamcrest/hamcrest-core/1.3/hamcrest-core-1.3.jar
JAR|false|false|C:/Users/Rahul Sapireddy/.m2/repository/com/fasterxml/classmate/1.3.0/classmate-1.3.0.jar
JAR|false|false|C:/Users/Rahul Sapireddy/.m2/repository/org/springframework/spring-aop/4.3.6.RELEASE/spring-aop-4.3.6.RELEASE.jar
JAR|false|false|C:/Program Files/Java/jdk1.8.0_144/jre/lib/ext/jaccess.jar
JAR|false|false|C:/Program Files/Java/jdk1.8.0_144/jre/lib/rt.jar
JAR|false|false|C:/Users/Rahul Sapireddy/.m2/repository/org/hibernate/hibernate-core/5.2.7.Final/hibernate-core-5.2.7.Final.jar
JAR|false|false|C:/Users/Rahul Sapireddy/.m2/repository/ch/qos/logback/logback-core/1.2.1/logback-core-1.2.1.jar
JAR|false|false|C:/Users/Rahul Sapireddy/.m2/repository/org/springframework/spring-jdbc/4.3.6.RELEASE/spring-jdbc-4.3.6.RELEASE.jar
JAR|false|false|C:/Users/Rahul Sapireddy/.m2/repository/org/javassist/javassist/3.20.0-GA/javassist-3.20.0-GA.jar
JAR|false|false|C:/Program Files/Java/jdk1.8.0_144/jre/lib/ext/localedata.jar
JAR|false|false|C:/Users/Rahul Sapireddy/.m2/repository/org/springframework/spring-context/4.3.6.RELEASE/spring-context-4.3.6.RELEASE.jar
JAR|false|false|C:/Users/Rahul Sapireddy/.m2/repository/junit/junit/4.12/junit-4.12.jar
JAR|false|false|C:/Program Files/Java/jdk1.8.0_144/jre/lib/ext/access-bridge-64.jar
JAR|false|false|C:/Users/Rahul Sapireddy/.m2/repository/org/apache/geronimo/specs/geronimo-jta_1.1_spec/1.1.1/geronimo-jta_1.1_spec-1.1.1.jar
JAR|false|false|C:/Program Files/Java/jdk1.8.0_144/jre/lib/ext/cldrdata.jar
JAR|false|false|C:/Users/Rahul Sapireddy/.m2/repository/com/fasterxml/jackson/core/jackson-databind/2.8.7/jackson-databind-2.8.7.jar
JAR|false|false|C:/Program Files/Java/jdk1.8.0_144/jre/lib/ext/sunjce_provider.jar
JAR|false|false|C:/Users/Rahul Sapireddy/.m2/repository/org/slf4j/jcl-over-slf4j/1.7.24/jcl-over-slf4j-1.7.24.jar
JAR|false|false|C:/Program Files/Java/jdk1.8.0_144/jre/lib/ext/jfxrt.jar
JAR|false|false|C:/Users/Rahul Sapireddy/.m2/repository/antlr/antlr/2.7.7/antlr-2.7.7.jar
